Verilog Assignments/Verilog Assignments Answers/Verilog HW0/HW0/Lookahead_Adder.vcd
$date
	Thu Mar 23 13:16:39 2023
$end
$version
	Icarus Verilog
$end
$timescale
	100ps
$end
$scope module Lookahead_Adder_Testbench $end
$var wire 16 ! Sum [15:0] $end
$var wire 1 " Carry_out $end
$var parameter 32 # LEN $end
$var reg 16 $ A [15:0] $end
$var reg 16 % B [15:0] $end
$var reg 1 & Carry_in $end
$var integer 32 ' i [31:0] $end
$scope module RA $end
$var wire 16 ( A [15:0] $end
$var wire 16 ) B [15:0] $end
$var wire 1 & Carry_in $end
$var wire 16 * G [15:0] $end
$var wire 16 + P [15:0] $end
$var wire 16 , Sum [15:0] $end
$var wire 1 " Carry_out $end
$var wire 17 - CarryX [16:0] $end
$var wire 17 . Carry [16:0] $end
$var parameter 32 / LEN $end
$scope begin genblk1[1] $end
$var parameter 2 0 i $end
$upscope $end
$scope begin genblk1[2] $end
$var parameter 3 1 i $end
$upscope $end
$scope begin genblk1[3] $end
$var parameter 3 2 i $end
$upscope $end
$scope begin genblk1[4] $end
$var parameter 4 3 i $end
$upscope $end
$scope begin genblk1[5] $end
$var parameter 4 4 i $end
$upscope $end
$scope begin genblk1[6] $end
$var parameter 4 5 i $end
$upscope $end
$scope begin genblk1[7] $end
$var parameter 4 6 i $end
$upscope $end
$scope begin genblk1[8] $end
$var parameter 5 7 i $end
$upscope $end
$scope begin genblk1[9] $end
$var parameter 5 8 i $end
$upscope $end
$scope begin genblk1[10] $end
$var parameter 5 9 i $end
$upscope $end
$scope begin genblk1[11] $end
$var parameter 5 : i $end
$upscope $end
$scope begin genblk1[12] $end
$var parameter 5 ; i $end
$upscope $end
$scope begin genblk1[13] $end
$var parameter 5 < i $end
$upscope $end
$scope begin genblk1[14] $end
$var parameter 5 = i $end
$upscope $end
$scope begin genblk1[15] $end
$var parameter 5 > i $end
$upscope $end
$scope begin genblk1[16] $end
$var parameter 6 ? i $end
$upscope $end
$scope begin genblk2[0] $end
$var parameter 2 @ i $end
$scope module uut $end
$var wire 1 A A $end
$var wire 1 B B $end
$var wire 1 C Carry_in $end
$var wire 1 D Carry_out $end
$var wire 1 E Sum $end
$var wire 1 F Wire1 $end
$var wire 1 G Wire2 $end
$var wire 1 H Wire3 $end
$upscope $end
$upscope $end
$scope begin genblk2[1] $end
$var parameter 2 I i $end
$scope module uut $end
$var wire 1 J A $end
$var wire 1 K B $end
$var wire 1 L Carry_in $end
$var wire 1 M Carry_out $end
$var wire 1 N Sum $end
$var wire 1 O Wire1 $end
$var wire 1 P Wire2 $end
$var wire 1 Q Wire3 $end
$upscope $end
$upscope $end
$scope begin genblk2[2] $end
$var parameter 3 R i $end
$scope module uut $end
$var wire 1 S A $end
$var wire 1 T B $end
$var wire 1 U Carry_in $end
$var wire 1 V Carry_out $end
$var wire 1 W Sum $end
$var wire 1 X Wire1 $end
$var wire 1 Y Wire2 $end
$var wire 1 Z Wire3 $end
$upscope $end
$upscope $end
$scope begin genblk2[3] $end
$var parameter 3 [ i $end
$scope module uut $end
$var wire 1 \ A $end
$var wire 1 ] B $end
$var wire 1 ^ Carry_in $end
$var wire 1 _ Carry_out $end
$var wire 1 ` Sum $end
$var wire 1 a Wire1 $end
$var wire 1 b Wire2 $end
$var wire 1 c Wire3 $end
$upscope $end
$upscope $end
$scope begin genblk2[4] $end
$var parameter 4 d i $end
$scope module uut $end
$var wire 1 e A $end
$var wire 1 f B $end
$var wire 1 g Carry_in $end
$var wire 1 h Carry_out $end
$var wire 1 i Sum $end
$var wire 1 j Wire1 $end
$var wire 1 k Wire2 $end
$var wire 1 l Wire3 $end
$upscope $end
$upscope $end
$scope begin genblk2[5] $end
$var parameter 4 m i $end
$scope module uut $end
$var wire 1 n A $end
$var wire 1 o B $end
$var wire 1 p Carry_in $end
$var wire 1 q Carry_out $end
$var wire 1 r Sum $end
$var wire 1 s Wire1 $end
$var wire 1 t Wire2 $end
$var wire 1 u Wire3 $end
$upscope $end
$upscope $end
$scope begin genblk2[6] $end
$var parameter 4 v i $end
$scope module uut $end
$var wire 1 w A $end
$var wire 1 x B $end
$var wire 1 y Carry_in $end
$var wire 1 z Carry_out $end
$var wire 1 { Sum $end
$var wire 1 | Wire1 $end
$var wire 1 } Wire2 $end
$var wire 1 ~ Wire3 $end
$upscope $end
$upscope $end
$scope begin genblk2[7] $end
$var parameter 4 !" i $end
$scope module uut $end
$var wire 1 "" A $end
$var wire 1 #" B $end
$var wire 1 $" Carry_in $end
$var wire 1 %" Carry_out $end
$var wire 1 &" Sum $end
$var wire 1 '" Wire1 $end
$var wire 1 (" Wire2 $end
$var wire 1 )" Wire3 $end
$upscope $end
$upscope $end
$scope begin genblk2[8] $end
$var parameter 5 *" i $end
$scope module uut $end
$var wire 1 +" A $end
$var wire 1 ," B $end
$var wire 1 -" Carry_in $end
$var wire 1 ." Carry_out $end
$var wire 1 /" Sum $end
$var wire 1 0" Wire1 $end
$var wire 1 1" Wire2 $end
$var wire 1 2" Wire3 $end
$upscope $end
$upscope $end
$scope begin genblk2[9] $end
$var parameter 5 3" i $end
$scope module uut $end
$var wire 1 4" A $end
$var wire 1 5" B $end
$var wire 1 6" Carry_in $end
$var wire 1 7" Carry_out $end
$var wire 1 8" Sum $end
$var wire 1 9" Wire1 $end
$var wire 1 :" Wire2 $end
$var wire 1 ;" Wire3 $end
$upscope $end
$upscope $end
$scope begin genblk2[10] $end
$var parameter 5 <" i $end
$scope module uut $end
$var wire 1 =" A $end
$var wire 1 >" B $end
$var wire 1 ?" Carry_in $end
$var wire 1 @" Carry_out $end
$var wire 1 A" Sum $end
$var wire 1 B" Wire1 $end
$var wire 1 C" Wire2 $end
$var wire 1 D" Wire3 $end
$upscope $end
$upscope $end
$scope begin genblk2[11] $end
$var parameter 5 E" i $end
$scope module uut $end
$var wire 1 F" A $end
$var wire 1 G" B $end
$var wire 1 H" Carry_in $end
$var wire 1 I" Carry_out $end
$var wire 1 J" Sum $end
$var wire 1 K" Wire1 $end
$var wire 1 L" Wire2 $end
$var wire 1 M" Wire3 $end
$upscope $end
$upscope $end
$scope begin genblk2[12] $end
$var parameter 5 N" i $end
$scope module uut $end
$var wire 1 O" A $end
$var wire 1 P" B $end
$var wire 1 Q" Carry_in $end
$var wire 1 R" Carry_out $end
$var wire 1 S" Sum $end
$var wire 1 T" Wire1 $end
$var wire 1 U" Wire2 $end
$var wire 1 V" Wire3 $end
$upscope $end
$upscope $end
$scope begin genblk2[13] $end
$var parameter 5 W" i $end
$scope module uut $end
$var wire 1 X" A $end
$var wire 1 Y" B $end
$var wire 1 Z" Carry_in $end
$var wire 1 [" Carry_out $end
$var wire 1 \" Sum $end
$var wire 1 ]" Wire1 $end
$var wire 1 ^" Wire2 $end
$var wire 1 _" Wire3 $end
$upscope $end
$upscope $end
$scope begin genblk2[14] $end
$var parameter 5 `" i $end
$scope module uut $end
$var wire 1 a" A $end
$var wire 1 b" B $end
$var wire 1 c" Carry_in $end
$var wire 1 d" Carry_out $end
$var wire 1 e" Sum $end
$var wire 1 f" Wire1 $end
$var wire 1 g" Wire2 $end
$var wire 1 h" Wire3 $end
$upscope $end
$upscope $end
$scope begin genblk2[15] $end
$var parameter 5 i" i $end
$scope module uut $end
$var wire 1 j" A $end
$var wire 1 k" B $end
$var wire 1 l" Carry_in $end
$var wire 1 m" Carry_out $end
$var wire 1 n" Sum $end
$var wire 1 o" Wire1 $end
$var wire 1 p" Wire2 $end
$var wire 1 q" Wire3 $end
$upscope $end
$upscope $end
$upscope $end
$upscope $end
$enddefinitions $end
$comment Show the parameter values. $end
$dumpall
b1111 i"
b1110 `"
b1101 W"
b1100 N"
b1011 E"
b1010 <"
b1001 3"
b1000 *"
b111 !"
b110 v
b101 m
b100 d
b11 [
b10 R
b1 I
b0 @
b10000 ?
b1111 >
b1110 =
b1101 <
b1100 ;
b1011 :
b1010 9
b1001 8
b1000 7
b111 6
b110 5
b101 4
b100 3
b11 2
b10 1
b1 0
b10000 /
b10000 #
$end
#0
$dumpvars
xq"
xp"
xo"
xn"
xm"
0l"
0k"
0j"
xh"
xg"
xf"
xe"
xd"
0c"
0b"
0a"
x_"
x^"
x]"
x\"
x["
0Z"
0Y"
0X"
xV"
xU"
xT"
xS"
xR"
0Q"
0P"
0O"
xM"
xL"
xK"
xJ"
xI"
0H"
0G"
0F"
xD"
xC"
xB"
xA"
x@"
0?"
0>"
0="
x;"
x:"
x9"
x8"
x7"
06"
05"
04"
x2"
x1"
x0"
x/"
x."
0-"
0,"
0+"
x)"
x("
x'"
x&"
x%"
0$"
0#"
0""
x~
x}
x|
x{
xz
0y
0x
0w
xu
xt
xs
xr
xq
0p
0o
0n
xl
xk
xj
xi
xh
0g
0f
0e
xc
xb
xa
x`
x_
0^
0]
0\
xZ
xY
xX
xW
xV
0U
0T
0S
xQ
xP
xO
xN
xM
0L
0K
0J
xH
xG
xF
xE
xD
0C
0B
0A
b0 .
bxz -
bx ,
b0 +
b0 *
b0 )
b0 (
bx '
0&
b0 %
b0 $
0"
bx !
$end
#13
0F
0O
0X
0a
0j
0s
0|
0'"
00"
09"
0B"
0K"
0T"
0]"
0f"
0o"
#14
0P
0Y
0b
0k
0t
0}
0("
01"
0:"
0C"
0L"
0U"
0^"
0g"
0p"
0G
0H
0Q
0Z
0c
0l
0u
0~
0)"
02"
0;"
0D"
0M"
0V"
0_"
0h"
0q"
#23
0D
0M
0V
0_
0h
0q
0z
0%"
0."
07"
0@"
0I"
0R"
0["
0d"
b0z -
0m"
#26
0E
0N
0W
0`
0i
0r
0{
0&"
0/"
08"
0A"
0J"
0S"
0\"
0e"
b0 !
b0 ,
0n"
#100
1l"
1Q"
1c"
1H"
1Z"
b1111100000000000 .
1B
1#"
15"
1>"
1G"
1P"
1b"
b111111110100101 +
b1010000000000 *
1S
1n
1+"
1="
1O"
1X"
b101111010000001 %
b101111010000001 )
b11010100100100 $
b11010100100100 (
b0 '
#113
1n"
1S"
1e"
1J"
b1111100000000000 !
b1111100000000000 ,
1\"
1F
1'"
19"
1K"
1f"
1X
1s
10"
1]"
#114
1D"
1V"
#123
1@"
b1010000000000z -
1R"
#126
1E
1&"
18"
0J"
0e"
1W
1r
1/"
b1001001110100101 !
b1001001110100101 ,
0\"
#127
1L"
1g"
1^"
#136
1I"
1d"
b111110000000000z -
1["
#300
1U
0Q"
0c"
1"
1L
1?"
b11010110000000110 .
1K
1o
1x
0#"
0G"
b1101011001101011 +
b101011000000001 *
1A
0S
1\
0n
0+"
14"
0X"
1a"
1j"
b101011001100011 %
b101011001100011 )
b1101011000001001 $
b1101011000001001 (
b1 '
#313
0W
0S"
1e"
1N
b1100011110100011 !
b1100011110100011 ,
1A"
1O
1|
0'"
0K"
0F
0X
1a
00"
09"
0]"
0f"
1o"
#314
0g"
1H
1;"
1h"
#323
1D
b111111000000001z -
17"
#326
0N
1{
0&"
1J"
0E
1W
1`
0/"
08"
1\"
0e"
b10110001101100 !
b10110001101100 ,
0n"
#327
1P
0L"
0^"
1p"
#336
1M
0I"
0["
b1101011000000011z -
1m"
#500
1"
0U
0H"
1c"
1^
1g
16"
1?"
1Q"
1l"
b11111011000011010 .
0K
1T
1]
0o
0x
1#"
1,"
05"
0>"
1G"
0b"
1k"
b1111101110001101 +
b1100100001101 *
1S
1+"
0="
1F"
1X"
0j"
b1001100110001101 %
b1001100110001101 )
b111101100001101 $
b111101100001101 (
b10 '
#513
0W
0J"
1e"
0`
1i
18"
b111011001110000 !
b111011001110000 ,
1S"
0O
0a
0s
0|
1'"
19"
1f"
1]"
#514
1c
0;"
0h"
1Z
12"
0D"
1M"
#523
1_
07"
0d"
1V
1."
0@"
b1001100100001111z -
1I"
#526
1N
1`
0r
0{
1&"
08"
0e"
b1010010011010 !
b1010010011010 ,
0\"
#527
0P
1:"
1g"
1^"
#536
0M
17"
1d"
b1111101100001101z -
1["
#700
0$"
0"
0y
0l"
0?"
0Z"
0U
0g
0p
0H"
0c"
0L
0^
06"
0Q"
b0 .
0B
1K
0T
0]
1f
0#"
0,"
15"
0G"
1b"
0k"
b1101011001110111 +
b0 *
0\
1n
1w
0+"
04"
1="
0F"
0O"
0X"
0a"
1j"
b101001000010010 %
b101001000010010 )
b1000010001100101 $
b1000010001100101 (
b11 '
#713
1n"
0A"
1\"
0i
1e"
0N
0`
18"
b1110001010000000 !
b1110001010000000 ,
0S"
1F
1O
1X
1j
0'"
1s
1|
1B"
1T"
0]"
#714
0p"
0^"
0g"
0:"
0H
0Z
0c
02"
0M"
0V"
#723
0m"
0["
0d"
07"
0D
0V
0_
0."
0I"
b0z -
0R"
#726
1E
1N
1W
1i
0&"
1r
1{
1A"
1S"
b1101011001110111 !
b1101011001110111 ,
0\"
#900
1Q"
1H"
1?"
1L
16"
1l"
1"
b11001111000000010 .
1B
0K
1T
1]
0f
1,"
05"
1>"
1G"
0P"
1k"
b1110111100001101 +
b1100000100000001 *
0S
0n
0w
1+"
14"
0="
1X"
1a"
b1100110100001101 %
b1100110100001101 )
b1110001100000001 $
b1110001100000001 (
b100 '
#913
0S"
1J"
0A"
0N
08"
b100100001110101 !
b100100001110101 ,
0n"
0F
0O
1a
0j
1K"
0T"
0o"
0s
0|
1]"
0f"
#914
1C"
1:"
1H
1q"
12"
1h"
#923
1@"
17"
1D
1m"
1."
b1100011100000001z -
1d"
#926
0E
1N
1`
0i
0J"
1S"
1n"
0r
0{
1\"
b1011000000001110 !
b1011000000001110 ,
0e"
#927
1L"
#936
b1100111100000001z -
1I"
#1100
b101 '
#2100
$dumpoff
xq"
xp"
xo"
xn"
xm"
xl"
xk"
xj"
xh"
xg"
xf"
xe"
xd"
xc"
xb"
xa"
x_"
x^"
x]"
x\"
x["
xZ"
xY"
xX"
xV"
xU"
xT"
xS"
xR"
xQ"
xP"
xO"
xM"
xL"
xK"
xJ"
xI"
xH"
xG"
xF"
xD"
xC"
xB"
xA"
x@"
x?"
x>"
x="
x;"
x:"
x9"
x8"
x7"
x6"
x5"
x4"
x2"
x1"
x0"
x/"
x."
x-"
x,"
x+"
x)"
x("
x'"
x&"
x%"
x$"
x#"
x""
x~
x}
x|
x{
xz
xy
xx
xw
xu
xt
xs
xr
xq
xp
xo
xn
xl
xk
xj
xi
xh
xg
xf
xe
xc
xb
xa
x`
x_
x^
x]
x\
xZ
xY
xX
xW
xV
xU
xT
xS
xQ
xP
xO
xN
xM
xL
xK
xJ
xH
xG
xF
xE
xD
xC
xB
xA
bx .
bx -
bx ,
bx +
bx *
bx )
bx (
bx '
x&
bx %
bx $
x"
bx !
$end
