Final Project/RV32IMF Processor/Core.vcd
$date
	Thu Jun 29 11:24:54 2023
$end
$version
	Icarus Verilog
$end
$timescale
	1ns
$end
$scope module Core $end
$var wire 1 ! ALU_Busy $end
$var wire 1 " MUL_Busy $end
$var wire 32 # bus_rd [31:0] $end
$var wire 32 $ bus_rs1 [31:0] $end
$var wire 32 % bus_rs2 [31:0] $end
$var wire 32 & fx2 [31:0] $end
$var wire 32 ' fx5 [31:0] $end
$var wire 32 ( fx7 [31:0] $end
$var wire 1 ) stage_enable $end
$var wire 32 * x0 [31:0] $end
$var wire 32 + x1 [31:0] $end
$var wire 32 , x10 [31:0] $end
$var wire 32 - x11 [31:0] $end
$var wire 32 . x12 [31:0] $end
$var wire 32 / x2 [31:0] $end
$var wire 32 0 x3 [31:0] $end
$var wire 32 1 x4 [31:0] $end
$var wire 32 2 x5 [31:0] $end
$var wire 5 3 write_index [4:0] $end
$var wire 5 4 read_index_2 [4:0] $end
$var wire 5 5 read_index_1 [4:0] $end
$var wire 7 6 opcode [6:0] $end
$var wire 32 7 instruction [31:0] $end
$var wire 32 8 immediate [31:0] $end
$var wire 1 9 funct7_valid $end
$var wire 7 : funct7 [6:0] $end
$var wire 1 ; branch_instruction $end
$var wire 1 < branch_enable $end
$var wire 1 = SQRT_Busy $end
$var wire 32 > PC [31:0] $end
$var wire 1 ? IRF_write_enable $end
$var wire 1 @ IRF_read_enable_2 $end
$var wire 1 A IRF_read_enable_1 $end
$var wire 1 B FRF_write_enable $end
$var wire 1 C FRF_read_enable_2 $end
$var wire 1 D FRF_read_enable_1 $end
$var parameter 32 E FLEN $end
$var parameter 32 F XLEN $end
$var reg 1 G CLK $end
$var reg 1 H Reset $end
$var reg 2 I stage [1:0] $end
$scope module ALU $end
$var wire 32 J bus_rs1 [31:0] $end
$var wire 32 K bus_rs2 [31:0] $end
$var wire 1 L immediate_valid $end
$var wire 32 M operand_1 [31:0] $end
$var wire 32 N operand_2 [31:0] $end
$var wire 7 O opcode [6:0] $end
$var wire 32 P immediate [31:0] $end
$var wire 1 9 funct7_valid $end
$var wire 7 Q funct7 [6:0] $end
$var parameter 32 R FLEN $end
$var reg 32 S alu_output [31:0] $end
$upscope $end
$scope module FRF $end
$var wire 1 G CLK $end
$var wire 32 T write_data [31:0] $end
$var wire 5 U write_index [4:0] $end
$var wire 1 B write_enable $end
$var wire 5 V read_index_2 [4:0] $end
$var wire 5 W read_index_1 [4:0] $end
$var wire 1 C read_enable_2 $end
$var wire 1 D read_enable_1 $end
$var reg 32 X read_data_1 [31:0] $end
$var reg 32 Y read_data_2 [31:0] $end
$var integer 32 Z i [31:0] $end
$upscope $end
$scope module IRF $end
$var wire 1 G CLK $end
$var wire 32 [ write_data [31:0] $end
$var wire 5 \ write_index [4:0] $end
$var wire 1 ? write_enable $end
$var wire 5 ] read_index_2 [4:0] $end
$var wire 5 ^ read_index_1 [4:0] $end
$var wire 1 @ read_enable_2 $end
$var wire 1 A read_enable_1 $end
$var reg 32 _ read_data_1 [31:0] $end
$var reg 32 ` read_data_2 [31:0] $end
$var integer 32 a i [31:0] $end
$upscope $end
$scope module MUL $end
$var wire 32 b bus_rs1 [31:0] $end
$var wire 32 c bus_rs2 [31:0] $end
$var wire 7 d opcode [6:0] $end
$var wire 1 9 funct7_valid $end
$var wire 7 e funct7 [6:0] $end
$var reg 32 f mul_output [31:0] $end
$upscope $end
$scope module SQRT $end
$var wire 1 G CLK $end
$var wire 32 g bus_rs1 [31:0] $end
$var wire 32 h rad [31:0] $end
$var wire 2 i stage [1:0] $end
$var wire 1 j stage_23 $end
$var wire 1 k start $end
$var wire 1 l stage_1 $end
$var wire 7 m opcode [6:0] $end
$var wire 1 9 funct7_valid $end
$var wire 7 n funct7 [6:0] $end
$var parameter 32 o FBITS $end
$var parameter 32 p ITER $end
$var parameter 32 q WIDTH $end
$var reg 34 r ac [33:0] $end
$var reg 34 s ac_next [33:0] $end
$var reg 5 t i [4:0] $end
$var reg 32 u q [31:0] $end
$var reg 32 v q_next [31:0] $end
$var reg 32 w root [31:0] $end
$var reg 1 = sqrt_busy $end
$var reg 32 x sqrt_output [31:0] $end
$var reg 34 y test_res [33:0] $end
$var reg 1 z valid $end
$var reg 32 { x [31:0] $end
$var reg 32 | x_next [31:0] $end
$upscope $end
$scope module branch_unit $end
$var wire 32 } bus_rs1 [31:0] $end
$var wire 32 ~ bus_rs2 [31:0] $end
$var wire 2 !" stage [1:0] $end
$var wire 1 ; branch_instruction $end
$var reg 1 "" branch_condition $end
$var reg 1 < branch_enable $end
$upscope $end
$scope module control_unit $end
$var wire 1 D FRF_read_enable_1 $end
$var wire 1 C FRF_read_enable_2 $end
$var wire 1 B FRF_write_enable $end
$var wire 1 A IRF_read_enable_1 $end
$var wire 1 @ IRF_read_enable_2 $end
$var wire 1 ? IRF_write_enable $end
$var wire 1 ; branch_instruction $end
$var wire 1 9 funct7_valid $end
$var wire 1 #" instruction_type_i $end
$var wire 1 $" instruction_type_r $end
$var wire 1 %" read_1_valid $end
$var wire 1 &" read_2_valid $end
$var wire 1 '" register_file_read_select $end
$var wire 2 (" stage [1:0] $end
$var wire 1 )" stage_12 $end
$var wire 1 *" write_valid $end
$var wire 5 +" write_index [4:0] $end
$var wire 1 ," stage_3 $end
$var wire 1 -" register_file_write_select $end
$var wire 5 ." read_index_2 [4:0] $end
$var wire 5 /" read_index_1 [4:0] $end
$var wire 7 0" opcode [6:0] $end
$var wire 1 1" instruction_type_b $end
$var wire 32 2" instruction [31:0] $end
$var wire 32 3" immediate [31:0] $end
$var wire 7 4" funct7 [6:0] $end
$upscope $end
$scope module fetch_unit $end
$var wire 2 5" stage [1:0] $end
$var wire 32 6" instruction [31:0] $end
$var wire 1 7" enable $end
$var wire 32 8" PC [31:0] $end
$scope module Imem $end
$var wire 32 9" ImemReadAddress [31:0] $end
$var wire 1 7" ImemReadEnable $end
$var reg 32 :" ImemReadData [31:0] $end
$upscope $end
$upscope $end
$scope module load_unit $end
$var wire 32 ;" bus_rs1 [31:0] $end
$var wire 32 <" immediate [31:0] $end
$var wire 1 =" memory_read_enable $end
$var wire 7 >" opcode [6:0] $end
$var wire 2 ?" stage [1:0] $end
$var wire 1 @" stage_3 $end
$var wire 32 A" memory_read_output [31:0] $end
$var reg 32 B" address [31:0] $end
$var reg 32 C" load_unit_output [31:0] $end
$scope module Dmem $end
$var wire 32 D" DmemAddress [31:0] $end
$var wire 1 =" DmemReadEnable $end
$var wire 32 E" DmemWriteData [31:0] $end
$var wire 1 F" DmemWriteEnable $end
$var reg 32 G" DmemReadData [31:0] $end
$upscope $end
$upscope $end
$scope module program_counter $end
$var wire 1 G CLK $end
$var wire 1 H Reset $end
$var wire 1 < branch_enable $end
$var wire 1 H" enable $end
$var wire 32 I" immediate [31:0] $end
$var wire 2 J" stage [1:0] $end
$var wire 32 K" next_PC [31:0] $end
$var wire 32 L" branch_target [31:0] $end
$var wire 32 M" PC_register_input [31:0] $end
$var wire 32 N" PC [31:0] $end
$scope module pc_register $end
$var wire 1 G CLK $end
$var wire 1 H" enable $end
$var wire 32 O" register_input [31:0] $end
$var reg 32 P" register_output [31:0] $end
$upscope $end
$upscope $end
$upscope $end
$enddefinitions $end
$comment Show the parameter values. $end
$dumpall
b100000 q
b10101 p
b1010 o
b1010 R
b100000 F
b1010 E
$end
#0
$dumpvars
bx P"
b11111111111111111111111111111100 O"
bx N"
b11111111111111111111111111111100 M"
bx L"
bx K"
bx J"
bx I"
1H"
b0zzzzzzzz G"
0F"
bz E"
bx D"
bz C"
bx B"
b0zzzzzzzz A"
x@"
bx ?"
bx >"
x="
bx <"
bz ;"
bx :"
bx 9"
bx 8"
x7"
bx 6"
bx 5"
bx 4"
bx 3"
bx 2"
x1"
bx 0"
bx /"
bx ."
x-"
x,"
bx +"
x*"
x)"
bx ("
x'"
x&"
1%"
x$"
x#"
x""
bx !"
bz ~
bz }
bx |
bx {
xz
bx y
bz x
bx w
bx v
bx u
b0 t
bx s
bx r
bx n
bx m
xl
xk
xj
bx i
bz h
bz g
bz f
bx e
bx d
bz c
bz b
b100000 a
bz `
bz _
bx ^
bx ]
bx \
bx [
b100000 Z
bz Y
bz X
bx W
bx V
bx U
bx T
bx S
bx Q
bx P
bx O
bx N
bz M
xL
bz K
bz J
bx I
1H
1G
xD
xC
xB
xA
x@
x?
bx >
0=
0<
x;
bx :
x9
bx 8
bx 7
bx 6
bx 5
bx 4
bx 3
b0 2
b0 1
b0 0
b0 /
b0 .
b0 -
b0 ,
b0 +
b0 *
1)
b0 (
b0 '
b0 &
bz %
bz $
bx #
0"
0!
$end
#1
b0 K"
b111111111111111111111111111111 9"
b11111111111111111111111111111100 >
b11111111111111111111111111111100 8"
b11111111111111111111111111111100 N"
b11111111111111111111111111111100 P"
0G
#2
1G
#3
0G
#4
1G
#5
0G
#6
1G
#7
0G
#8
1G
#9
xA
x@
xD
xC
0j
xk
1)"
0B
0?
0="
0H"
b0 M"
b0 O"
0G
1l
0,"
07"
0@"
b1 I
b1 i
b1 !"
b1 ("
b1 5"
b1 ?"
b1 J"
0H
#10
1G
#11
1j
0k
0l
b10 I
b10 i
b10 !"
b10 ("
b10 5"
b10 ?"
b10 J"
0G
#12
1G
#13
0A
0@
0D
0C
0)"
xB
x?
x="
1H"
1,"
17"
1@"
b11 I
b11 i
b11 !"
b11 ("
b11 5"
b11 ?"
b11 J"
0G
#14
1G
#15
1&"
bz N
0L
bz 8
bz P
bz 3"
bz <"
bz I"
19
1$"
1*"
0#"
0'"
b100 M"
b100 O"
b1010 3
b1010 U
b1010 \
b1010 +"
b0 4
b0 V
b0 ]
b0 ."
b0 5
b0 W
b0 ^
b0 /"
b0 :
b0 Q
b0 e
b0 n
b0 4"
0;
01"
0-"
b110011 6
b110011 O
b110011 d
b110011 m
b110011 0"
b110011 >"
b100 K"
b10100110011 7
b10100110011 2"
b10100110011 6"
b10100110011 :"
b0 9"
b0 >
b0 8"
b0 N"
b0 P"
0j
0B
0?
0="
0H"
0,"
07"
0@"
b0 I
b0 i
b0 !"
b0 ("
b0 5"
b0 ?"
b0 J"
0G
#16
1G
#17
1A
1@
1)"
1l
b1 I
b1 i
b1 !"
b1 ("
b1 5"
b1 ?"
b1 J"
0G
#18
b0 #
b0 T
b0 [
b0 S
b0 N
b0 %
b0 K
b0 c
b0 ~
b0 `
b0 M
b0 h
b0 $
b0 J
b0 b
b0 g
b0 }
b0 ;"
b0 _
1G
#19
1j
0""
0l
b10 I
b10 i
b10 !"
b10 ("
b10 5"
b10 ?"
b10 J"
0G
#20
1G
#21
0A
0@
0)"
1?
1H"
1,"
17"
1@"
b11 I
b11 i
b11 !"
b11 ("
b11 5"
b11 ?"
b11 J"
0G
#22
bz N
bx #
bx T
bx [
bx S
bz %
bz K
bz c
bz ~
bz `
bz M
bz h
bz $
bz J
bz b
bz g
bz }
bz ;"
bz _
1G
#23
b1 N
0&"
b101 L"
b1 8
b1 P
b1 3"
b1 <"
b1 I"
1L
1#"
09
0$"
bx #
bx T
bx [
bx S
b1000 M"
b1000 O"
b1011 3
b1011 U
b1011 \
b1011 +"
b1 4
b1 V
b1 ]
b1 ."
b10011 6
b10011 O
b10011 d
b10011 m
b10011 0"
b10011 >"
b1000 K"
b100000000010110010011 7
b100000000010110010011 2"
b100000000010110010011 6"
b100000000010110010011 :"
b1 9"
b100 >
b100 8"
b100 N"
b100 P"
0j
0?
0H"
0,"
07"
0@"
b0 I
b0 i
b0 !"
b0 ("
b0 5"
b0 ?"
b0 J"
0G
#24
1G
#25
1A
1)"
1l
b1 I
b1 i
b1 !"
b1 ("
b1 5"
b1 ?"
b1 J"
0G
#26
b1 #
b1 T
b1 [
b1 S
b0 M
b0 h
b0 $
b0 J
b0 b
b0 g
b0 }
b0 ;"
b0 _
1G
#27
1j
b1 B"
b1 D"
x""
0l
b10 I
b10 i
b10 !"
b10 ("
b10 5"
b10 ?"
b10 J"
0G
#28
1G
#29
0A
0)"
1?
1H"
1,"
17"
1@"
b11 I
b11 i
b11 !"
b11 ("
b11 5"
b11 ?"
b11 J"
0G
#30
bx #
bx T
bx [
bx S
bz M
bz h
bz $
bz J
bz b
bz g
bz }
bz ;"
bz _
b1 -
1G
#31
b1100010 N
b1100010 8
b1100010 P
b1100010 3"
b1100010 <"
b1100010 I"
b1100 M"
b1100 O"
b1100 3
b1100 U
b1100 \
b1100 +"
b10 4
b10 V
b10 ]
b10 ."
b11 :
b11 Q
b11 e
b11 n
b11 4"
b1100 K"
b110001000000000011000010011 7
b110001000000000011000010011 2"
b110001000000000011000010011 6"
b110001000000000011000010011 :"
b1101010 L"
b10 9"
b1000 >
b1000 8"
b1000 N"
b1000 P"
0j
0?
0H"
0,"
07"
0@"
b0 I
b0 i
b0 !"
b0 ("
b0 5"
b0 ?"
b0 J"
0G
#32
1G
#33
1A
1)"
1l
b1 I
b1 i
b1 !"
b1 ("
b1 5"
b1 ?"
b1 J"
0G
#34
b1100010 #
b1100010 T
b1100010 [
b1100010 S
b0 M
b0 h
b0 $
b0 J
b0 b
b0 g
b0 }
b0 ;"
b0 _
1G
#35
1j
b1100010 B"
b1100010 D"
0l
b10 I
b10 i
b10 !"
b10 ("
b10 5"
b10 ?"
b10 J"
0G
#36
1G
#37
0A
0)"
1?
1H"
1,"
17"
1@"
b11 I
b11 i
b11 !"
b11 ("
b11 5"
b11 ?"
b11 J"
0G
#38
bx #
bx T
bx [
bx S
bz M
bz h
bz $
bz J
bz b
bz g
bz }
bz ;"
bz _
b1100010 .
1G
#39
1&"
bz N
0L
0#"
bz 8
bz P
bz 3"
bz <"
bz I"
19
1$"
1'"
bx #
bx T
bx [
bx S
b10000 M"
b10000 O"
b10 3
b10 U
b10 \
b10 +"
b0 4
b0 V
b0 ]
b0 ."
b0 :
b0 Q
b0 e
b0 n
b0 4"
1-"
b1010011 6
b1010011 O
b1010011 d
b1010011 m
b1010011 0"
b1010011 >"
b10000 K"
b101010011 7
b101010011 2"
b101010011 6"
b101010011 :"
bx L"
b11 9"
b1100 >
b1100 8"
b1100 N"
b1100 P"
0j
0?
0H"
0,"
07"
0@"
b0 I
b0 i
b0 !"
b0 ("
b0 5"
b0 ?"
b0 J"
0G
#40
1G
#41
1D
1C
1)"
1l
b1 I
b1 i
b1 !"
b1 ("
b1 5"
b1 ?"
b1 J"
0G
#42
b0 #
b0 T
b0 [
b0 S
b0 N
b0 %
b0 K
b0 c
b0 ~
b0 Y
b0 M
b0 h
b0 $
b0 J
b0 b
b0 g
b0 }
b0 ;"
b0 X
1G
#43
1j
bx B"
bx D"
0""
0l
b10 I
b10 i
b10 !"
b10 ("
b10 5"
b10 ?"
b10 J"
0G
#44
1G
#45
0D
0C
0)"
1B
1H"
1,"
17"
1@"
b11 I
b11 i
b11 !"
b11 ("
b11 5"
b11 ?"
b11 J"
0G
#46
bz N
bx #
bx T
bx [
bx S
bz %
bz K
bz c
bz ~
bz Y
bz M
bz h
bz $
bz J
bz b
bz g
bz }
bz ;"
bz X
1G
#47
b0 N
0&"
b10000 L"
b0 8
b0 P
b0 3"
b0 <"
b0 I"
1L
1#"
09
0$"
0'"
bz #
bz T
bz [
bz S
b10100 M"
b10100 O"
b1 3
b1 U
b1 \
b1 +"
b1010 5
b1010 W
b1010 ^
b1010 /"
0-"
b11 6
b11 O
b11 d
b11 m
b11 0"
b11 >"
b10100 K"
b1010100000010000011 7
b1010100000010000011 2"
b1010100000010000011 6"
b1010100000010000011 :"
b100 9"
b10000 >
b10000 8"
b10000 N"
b10000 P"
0j
0B
0H"
0,"
07"
0@"
b0 I
b0 i
b0 !"
b0 ("
b0 5"
b0 ?"
b0 J"
0G
#48
1G
#49
1A
1)"
1l
b1 I
b1 i
b1 !"
b1 ("
b1 5"
b1 ?"
b1 J"
0G
#50
b0 M
b0 h
b0 $
b0 J
b0 b
b0 g
b0 }
b0 ;"
b0 _
1G
#51
1j
b0 B"
b0 D"
x""
0l
b10 I
b10 i
b10 !"
b10 ("
b10 5"
b10 ?"
b10 J"
0G
#52
1G
#53
b10 A"
b10 G"
b10 #
b10 T
b10 [
b10 C"
0A
0)"
1?
1="
1H"
1,"
17"
1@"
b11 I
b11 i
b11 !"
b11 ("
b11 5"
b11 ?"
b11 J"
0G
#54
bz M
bz h
bz $
bz J
bz b
bz g
bz }
bz ;"
bz _
b10 +
1G
#55
b10 N
b10 8
b10 P
b10 3"
b10 <"
b10 I"
bx S
b11000 M"
b11000 O"
b1010 3
b1010 U
b1010 \
b1010 +"
b10 4
b10 V
b10 ]
b10 ."
b10011 6
b10011 O
b10011 d
b10011 m
b10011 0"
b10011 >"
b11000 K"
b1001010000010100010011 7
b1001010000010100010011 2"
b1001010000010100010011 6"
b1001010000010100010011 :"
b0zzzzzzzz A"
b0zzzzzzzz G"
bx #
bx T
bx [
bz C"
b10110 L"
b101 9"
b10100 >
b10100 8"
b10100 N"
b10100 P"
0j
0?
0="
0H"
0,"
07"
0@"
b0 I
b0 i
b0 !"
b0 ("
b0 5"
b0 ?"
b0 J"
0G
#56
1G
#57
1A
1)"
1l
b1 I
b1 i
b1 !"
b1 ("
b1 5"
b1 ?"
b1 J"
0G
#58
b10 #
b10 T
b10 [
b10 S
b0 M
b0 h
b0 $
b0 J
b0 b
b0 g
b0 }
b0 ;"
b0 _
1G
#59
1j
b10 B"
b10 D"
0l
b10 I
b10 i
b10 !"
b10 ("
b10 5"
b10 ?"
b10 J"
0G
#60
1G
#61
0A
0)"
1?
1H"
1,"
17"
1@"
b11 I
b11 i
b11 !"
b11 ("
b11 5"
b11 ?"
b11 J"
0G
#62
bx #
bx T
bx [
bx S
bz M
bz h
bz $
bz J
bz b
bz g
bz }
bz ;"
bz _
b10 ,
1G
#63
b0 N
b0 8
b0 P
b0 3"
b0 <"
b0 I"
bz #
bz T
bz [
bz S
b11100 M"
b11100 O"
b10 3
b10 U
b10 \
b10 +"
b0 4
b0 V
b0 ]
b0 ."
b1011 5
b1011 W
b1011 ^
b1011 /"
b11 6
b11 O
b11 d
b11 m
b11 0"
b11 >"
b11100 K"
b1011100000100000011 7
b1011100000100000011 2"
b1011100000100000011 6"
b1011100000100000011 :"
b11000 L"
b110 9"
b11000 >
b11000 8"
b11000 N"
b11000 P"
0j
0?
0H"
0,"
07"
0@"
b0 I
b0 i
b0 !"
b0 ("
b0 5"
b0 ?"
b0 J"
0G
#64
1G
#65
1A
1)"
1l
b1 I
b1 i
b1 !"
b1 ("
b1 5"
b1 ?"
b1 J"
0G
#66
b1 M
b1 h
b1 $
b1 J
b1 b
b1 g
b1 }
b1 ;"
b1 _
1G
#67
1j
b1 B"
b1 D"
0l
b10 I
b10 i
b10 !"
b10 ("
b10 5"
b10 ?"
b10 J"
0G
#68
1G
#69
b110001 A"
b110001 G"
b110001 #
b110001 T
b110001 [
b110001 C"
0A
0)"
1?
1="
1H"
1,"
17"
1@"
b11 I
b11 i
b11 !"
b11 ("
b11 5"
b11 ?"
b11 J"
0G
#70
bz M
bz h
bz $
bz J
bz b
bz g
bz }
bz ;"
bz _
b110001 /
1G
#71
b10 N
b10 8
b10 P
b10 3"
b10 <"
b10 I"
bx S
b100000 M"
b100000 O"
b1011 3
b1011 U
b1011 \
b1011 +"
b10 4
b10 V
b10 ]
b10 ."
b10011 6
b10011 O
b10011 d
b10011 m
b10011 0"
b10011 >"
b100000 K"
b1001011000010110010011 7
b1001011000010110010011 2"
b1001011000010110010011 6"
b1001011000010110010011 :"
b0zzzzzzzz A"
b0zzzzzzzz G"
bx #
bx T
bx [
bz C"
b11110 L"
b111 9"
b11100 >
b11100 8"
b11100 N"
b11100 P"
0j
0?
0="
0H"
0,"
07"
0@"
b0 I
b0 i
b0 !"
b0 ("
b0 5"
b0 ?"
b0 J"
0G
#72
1G
#73
1A
1)"
1l
b1 I
b1 i
b1 !"
b1 ("
b1 5"
b1 ?"
b1 J"
0G
#74
b11 #
b11 T
b11 [
b11 S
b1 M
b1 h
b1 $
b1 J
b1 b
b1 g
b1 }
b1 ;"
b1 _
1G
#75
1j
b11 B"
b11 D"
0l
b10 I
b10 i
b10 !"
b10 ("
b10 5"
b10 ?"
b10 J"
0G
#76
1G
#77
0A
0)"
1?
1H"
1,"
17"
1@"
b11 I
b11 i
b11 !"
b11 ("
b11 5"
b11 ?"
b11 J"
0G
#78
bx #
bx T
bx [
bx S
bz M
bz h
bz $
bz J
bz b
bz g
bz }
bz ;"
bz _
b11 -
1G
#79
1&"
bz N
0L
bx f
0#"
bz 8
bz P
bz 3"
bz <"
bz I"
19
1$"
bx #
bx T
bx [
bz S
b100100 M"
b100100 O"
b11 3
b11 U
b11 \
b11 +"
b1 4
b1 V
b1 ]
b1 ."
b1 5
b1 W
b1 ^
b1 /"
b1 :
b1 Q
b1 e
b1 n
b1 4"
b110011 6
b110011 O
b110011 d
b110011 m
b110011 0"
b110011 >"
b100100 K"
b10000100001000000110110011 7
b10000100001000000110110011 2"
b10000100001000000110110011 6"
b10000100001000000110110011 :"
bx L"
b1000 9"
b100000 >
b100000 8"
b100000 N"
b100000 P"
0j
0?
0H"
0,"
07"
0@"
b0 I
b0 i
b0 !"
b0 ("
b0 5"
b0 ?"
b0 J"
0G
#80
1G
#81
1A
1@
1)"
1l
b1 I
b1 i
b1 !"
b1 ("
b1 5"
b1 ?"
b1 J"
0G
#82
b10 N
b100 #
b100 T
b100 [
b100 f
b10 %
b10 K
b10 c
b10 ~
b10 `
b10 M
b10 h
b10 $
b10 J
b10 b
b10 g
b10 }
b10 ;"
b10 _
1G
#83
1j
bx B"
bx D"
0""
0l
b10 I
b10 i
b10 !"
b10 ("
b10 5"
b10 ?"
b10 J"
0G
#84
1G
#85
0A
0@
0)"
1?
1H"
1,"
17"
1@"
b11 I
b11 i
b11 !"
b11 ("
b11 5"
b11 ?"
b11 J"
0G
#86
bz N
bx #
bx T
bx [
bx f
bz %
bz K
bz c
bz ~
bz `
bz M
bz h
bz $
bz J
bz b
bz g
bz }
bz ;"
bz _
b100 0
1G
#87
b101000 M"
b101000 O"
b100 3
b100 U
b100 \
b100 +"
b10 4
b10 V
b10 ]
b10 ."
b10 5
b10 W
b10 ^
b10 /"
b101000 K"
b10001000010000001000110011 7
b10001000010000001000110011 2"
b10001000010000001000110011 6"
b10001000010000001000110011 :"
b1001 9"
b100100 >
b100100 8"
b100100 N"
b100100 P"
0j
0?
0H"
0,"
07"
0@"
b0 I
b0 i
b0 !"
b0 ("
b0 5"
b0 ?"
b0 J"
0G
#88
1G
#89
1A
1@
1)"
1l
b1 I
b1 i
b1 !"
b1 ("
b1 5"
b1 ?"
b1 J"
0G
#90
b110001 N
b100101100001 #
b100101100001 T
b100101100001 [
b100101100001 f
b110001 %
b110001 K
b110001 c
b110001 ~
b110001 `
b110001 M
b110001 h
b110001 $
b110001 J
b110001 b
b110001 g
b110001 }
b110001 ;"
b110001 _
1G
#91
1j
0l
b10 I
b10 i
b10 !"
b10 ("
b10 5"
b10 ?"
b10 J"
0G
#92
1G
#93
0A
0@
0)"
1?
1H"
1,"
17"
1@"
b11 I
b11 i
b11 !"
b11 ("
b11 5"
b11 ?"
b11 J"
0G
#94
bz N
bx #
bx T
bx [
bx f
bz %
bz K
bz c
bz ~
bz `
bz M
bz h
bz $
bz J
bz b
bz g
bz }
bz ;"
bz _
b100101100001 1
1G
#95
bx S
bx #
bx T
bx [
bz f
b101100 M"
b101100 O"
b101 3
b101 U
b101 \
b101 +"
b100 4
b100 V
b100 ]
b100 ."
b11 5
b11 W
b11 ^
b11 /"
b0 :
b0 Q
b0 e
b0 n
b0 4"
b101100 K"
b10000011000001010110011 7
b10000011000001010110011 2"
b10000011000001010110011 6"
b10000011000001010110011 :"
b1010 9"
b101000 >
b101000 8"
b101000 N"
b101000 P"
0j
0?
0H"
0,"
07"
0@"
b0 I
b0 i
b0 !"
b0 ("
b0 5"
b0 ?"
b0 J"
0G
#96
1G
#97
1A
1@
1)"
1l
b1 I
b1 i
b1 !"
b1 ("
b1 5"
b1 ?"
b1 J"
0G
#98
b100101100101 #
b100101100101 T
b100101100101 [
b100101100101 S
b100101100001 N
b100101100001 %
b100101100001 K
b100101100001 c
b100101100001 ~
b100101100001 `
b100 M
b100 h
b100 $
b100 J
b100 b
b100 g
b100 }
b100 ;"
b100 _
1G
#99
1j
1""
0l
b10 I
b10 i
b10 !"
b10 ("
b10 5"
b10 ?"
b10 J"
0G
#100
1G
#101
0A
0@
0)"
1?
1H"
1,"
17"
1@"
b11 I
b11 i
b11 !"
b11 ("
b11 5"
b11 ?"
b11 J"
0G
#102
bz N
bx #
bx T
bx [
bx S
bz %
bz K
bz c
bz ~
bz `
bz M
bz h
bz $
bz J
bz b
bz g
bz }
bz ;"
bz _
b100101100101 2
1G
#103
0&"
bz0000000000 #
bz0000000000 T
bz0000000000 [
bz0000000000 S
b110000 M"
b110000 O"
b1 4
b1 V
b1 ]
b1 ."
b101 5
b101 W
b101 ^
b101 /"
b1101000 :
b1101000 Q
b1101000 e
b1101000 n
b1101000 4"
1-"
b1010011 6
b1010011 O
b1010011 d
b1010011 m
b1010011 0"
b1010011 >"
b110000 K"
b11010000000100101000001011010011 7
b11010000000100101000001011010011 2"
b11010000000100101000001011010011 6"
b11010000000100101000001011010011 :"
b1011 9"
b101100 >
b101100 8"
b101100 N"
b101100 P"
0j
0?
0H"
0,"
07"
0@"
b0 I
b0 i
b0 !"
b0 ("
b0 5"
b0 ?"
b0 J"
0G
#104
1G
#105
1A
1)"
1l
b1 I
b1 i
b1 !"
b1 ("
b1 5"
b1 ?"
b1 J"
0G
#106
b1001011001010000000000 #
b1001011001010000000000 T
b1001011001010000000000 [
b1001011001010000000000 S
b100101100101 M
b100101100101 h
b100101100101 $
b100101100101 J
b100101100101 b
b100101100101 g
b100101100101 }
b100101100101 ;"
b100101100101 _
1G
#107
1j
x""
0l
b10 I
b10 i
b10 !"
b10 ("
b10 5"
b10 ?"
b10 J"
0G
#108
1G
#109
0A
0)"
1B
1H"
1,"
17"
1@"
b11 I
b11 i
b11 !"
b11 ("
b11 5"
b11 ?"
b11 J"
0G
#110
bz0000000000 #
bz0000000000 T
bz0000000000 [
bz0000000000 S
b1001011001010000000000 '
bz M
bz h
bz $
bz J
bz b
bz g
bz }
bz ;"
bz _
1G
#111
1'"
bz #
bz T
bz [
bz S
b110100 M"
b110100 O"
b111 3
b111 U
b111 \
b111 +"
b0 4
b0 V
b0 ]
b0 ."
b101100 :
b101100 Q
b101100 e
b101100 n
b101100 4"
b110100 K"
b1011000000000101000001111010011 7
b1011000000000101000001111010011 2"
b1011000000000101000001111010011 6"
b1011000000000101000001111010011 :"
b1100 9"
b110000 >
b110000 8"
b110000 N"
b110000 P"
0j
0B
0H"
0,"
07"
0@"
b0 I
b0 i
b0 !"
b0 ("
b0 5"
b0 ?"
b0 J"
0G
#112
1G
#113
1D
1k
1)"
1l
b1 I
b1 i
b1 !"
b1 ("
b1 5"
b1 ?"
b1 J"
0G
#114
b1001011001010000000000 M
b1001011001010000000000 h
b1001011001010000000000 $
b1001011001010000000000 J
b1001011001010000000000 b
b1001011001010000000000 g
b1001011001010000000000 }
b1001011001010000000000 ;"
b1001011001010000000000 X
1G
#115
b0 v
b0 s
b10010110010100000000000000 |
b1111111111111111111111111111111111 y
0)
b0 r
b100101100101000000000000 {
b0 u
0z
1=
1j
0k
0l
b10 I
b10 i
b10 !"
b10 ("
b10 5"
b10 ?"
b10 J"
0G
#116
bx #
bx T
bx [
bx x
1G
#117
b1001011001010000000000000000 |
b10010110010100000000000000 {
b1 t
0G
#118
1G
#119
b100101100101000000000000000000 |
b1001011001010000000000000000 {
b10 t
0G
#120
1G
#121
b10010110010100000000000000000000 |
b100101100101000000000000000000 {
b11 t
0G
#122
1G
#123
b10 s
b1011001010000000000000000000000 |
b10010110010100000000000000000000 {
b100 t
0G
#124
1G
#125
b1 v
b101 s
b1100101000000000000000000000000 |
b1 y
b10 r
b1011001010000000000000000000000 {
b101 t
0G
#126
1G
#127
b11 v
b1 s
b10010100000000000000000000000000 |
b0 y
b1 u
b101 r
b1100101000000000000000000000000 {
b110 t
0G
#128
1G
#129
b110 v
b110 s
b1010000000000000000000000000000 |
b1111111111111111111111111111110100 y
b11 u
b1 r
b10010100000000000000000000000000 {
b111 t
0G
#130
1G
#131
b1100 v
b11001 s
b1000000000000000000000000000000 |
b1111111111111111111111111111101101 y
b110 u
b110 r
b1010000000000000000000000000000 {
b1000 t
0G
#132
1G
#133
b11000 v
b1100101 s
b0 |
b1111111111111111111111111111101000 y
b1100 u
b11001 r
b1000000000000000000000000000000 {
b1001 t
0G
#134
1G
#135
b110001 v
b10000 s
b100 y
b11000 u
b1100101 r
b0 {
b1010 t
0G
#136
1G
#137
b1100010 v
b1000000 s
b1111111111111111111111111101001011 y
b110001 u
b10000 r
b1011 t
0G
#138
1G
#139
b11000100 v
b100000000 s
b1111111111111111111111111010110111 y
b1100010 u
b1000000 r
b1100 t
0G
#140
1G
#141
b110001000 v
b10000000000 s
b1111111111111111111111110111101111 y
b11000100 u
b100000000 r
b1101 t
0G
#142
1G
#143
b1100010000 v
b1000000000000 s
b1111111111111111111111110111011111 y
b110001000 u
b10000000000 r
b1110 t
0G
#144
1G
#145
b11000100001 v
b111011111100 s
b1110111111 y
b1100010000 u
b1000000000000 r
b1111 t
0G
#146
1G
#147
b110001000010 v
b11101111110000 s
b1111111111111111111111011001110111 y
b11000100001 u
b111011111100 r
b10000 t
0G
#148
1G
#149
b1100010000101 v
b10101110011100 s
b101011100111 y
b110001000010 u
b11101111110000 r
b10001 t
0G
#150
1G
